module gitlab.com/pl18/junchu-gitlab-qqq

go 1.16

require (
	github.com/golang/protobuf v1.4.3
	github.com/google/go-cmp v0.5.4 // indirect
	github.com/gorilla/mux v1.8.0
	github.com/grpc-ecosystem/grpc-gateway v1.16.0
	github.com/prometheus/client_golang v0.9.3
	github.com/spf13/viper v1.7.1
	go.uber.org/zap v1.16.0
	golang.org/x/net v0.0.0-20210119194325-5f4716e94777 // indirect
	golang.org/x/sys v0.0.0-20210124154548-22da62e12c0c // indirect
	golang.org/x/text v0.3.5 // indirect
	google.golang.org/genproto v0.0.0-20210224155714-063164c882e6
	google.golang.org/grpc v1.36.0
	google.golang.org/protobuf v1.25.1-0.20201208041424-160c7477e0e8
)